<?xml version="1.0" encoding="utf-8"?>
<!-- Generator: Adobe Illustrator 18.0.0, SVG Export Plug-In . SVG Version: 6.00 Build 0)  -->
<!DOCTYPE svg PUBLIC "-//W3C//DTD SVG 1.1//EN" "http://www.w3.org/Graphics/SVG/1.1/DTD/svg11.dtd">
<svg version="1.1" xmlns="http://www.w3.org/2000/svg" xmlns:xlink="http://www.w3.org/1999/xlink" x="0px" y="0px"
	 viewBox="0 0 366.1 214.2" enable-background="new 0 0 366.1 214.2" xml:space="preserve">
<g id="Layer_1" display="none">
	<g display="inline">
		<path fill="#58595B" d="M21.8,97.7c-3.3,2.6-7.9,2.4-11.8,2.4H8.6v15H1.2V75.4h9.3c3.8,0,7.4-0.2,10.7,2.1c3.3,2.2,5.3,6,5.3,10
			S25,95.2,21.8,97.7z M15.4,82.9c-1.6-0.4-3.9-0.3-5.5-0.3H8.6V93h1.3c1.8,0,3.9,0.1,5.7-0.4c2.1-0.7,3.6-2.6,3.6-4.9
			C19.2,85.2,17.6,83.5,15.4,82.9z"/>
		<path fill="#58595B" d="M48.1,115.2L37.8,100h-0.1v15.2h-7.4V75.4h11.5c3.8,0.1,7.3,0.3,10.3,2.8c2.9,2.4,4.7,6.1,4.7,9.8
			c0,3-1.3,6.6-3.3,8.7c-1.9,2.1-4.4,3.2-7,3.8l10.8,14.7H48.1z M47.3,83.9c-1.7-1.3-3.4-1.3-5.5-1.3h-4.1v11.8h4
			c1.9,0,4.4-0.3,5.9-1.7c1.2-1.1,1.8-2.6,1.8-4.3C49.4,86.6,48.7,84.9,47.3,83.9z"/>
		<path fill="#58595B" d="M79.2,116.1c-11.3,0-20.7-9.1-20.7-20.6c0-11.6,9.2-20.8,20.7-20.8c11.5,0,20.7,9.2,20.7,20.8
			C99.9,107,90.5,116.1,79.2,116.1z M79.2,81.8c-7.4,0-13.3,6-13.3,13.5c0,7.4,6.1,13.6,13.3,13.6c7.3,0,13.4-6.3,13.4-13.6
			C92.6,87.8,86.6,81.8,79.2,81.8z"/>
		<path fill="#58595B" d="M125.6,112.5c-3.2,2.3-7.2,2.5-11,2.6h-9.9V75.4h7.5c3.6,0,7-0.2,10.3,1.5c3.3,1.7,5.6,5.2,5.6,8.9
			c0,3.2-1.5,6.2-4.4,7.6c4.4,1.4,6.8,5.1,6.8,9.6C130.5,106.9,128.8,110.2,125.6,112.5z M118.2,82.9c-1.4-0.6-3.3-0.4-4.8-0.4h-1.3
			v8.2h1.4c1.6,0,3.6,0.1,5-0.6c1.4-0.6,2.3-2.2,2.3-3.7C120.7,84.8,119.7,83.5,118.2,82.9z M120.5,98.7c-1.7-0.9-3.4-0.8-5.2-0.8
			h-3.2V108h3.1c2.1,0,4.1-0.1,6.1-1.4c1.3-0.9,1.9-2.2,1.9-3.9C123.1,100.8,122.2,99.6,120.5,98.7z"/>
		<path fill="#58595B" d="M134.9,115.2V75.4h7.4v39.8H134.9z"/>
		<path fill="#58595B" d="M167.5,116.1c-11.3,0-20.7-9.1-20.7-20.6c0-11.6,9.2-20.8,20.7-20.8c11.5,0,20.7,9.2,20.7,20.8
			C188.2,107,178.8,116.1,167.5,116.1z M167.5,81.8c-7.4,0-13.3,6-13.3,13.5c0,7.4,6.1,13.6,13.3,13.6c7.3,0,13.4-6.3,13.4-13.6
			C180.9,87.8,175,81.8,167.5,81.8z"/>
		<path fill="#58595B" d="M204.4,82.6v32.6h-7.4V82.6h-7.3v-7.1h22.1v7.1H204.4z"/>
		<path fill="#58595B" d="M237.9,115.2l-4.3-10.3h-14.1l-4.4,10.3h-8.1l16.5-39.8h5.7l16.8,39.8H237.9z M226.4,85.7l-4.2,12.1h8.5
			L226.4,85.7z"/>
	</g>
	<g display="inline">
		<path fill="#F68B1F" d="M29.1,159.3l-4-9.5H12L8,159.3H0.4l15.3-36.9h5.3l15.5,36.9H29.1z M18.5,132l-3.9,11.2h7.9L18.5,132z"/>
		<path fill="#F68B1F" d="M71.1,159.3v-27.6l-9.5,27.6h-5.8l-9.5-27.6v27.6h-6.8v-36.9h9.3l9.9,28.2l10.1-28.2h9.3v36.9H71.1z"/>
		<path fill="#F68B1F" d="M83.4,159.3v-36.9h19.8v6.6H90.2v8.5h12.4v6.6H90.2v8.5h12.9v6.6H83.4z"/>
		<path fill="#F68B1F" d="M124.8,159.3l-9.6-14.1h-0.1v14.1h-6.8v-36.9H119c3.5,0,6.8,0.2,9.6,2.6c2.7,2.2,4.3,5.6,4.3,9.1
			c0,2.7-1.2,6.1-3.1,8.1c-1.8,1.9-4,3-6.5,3.5l10,13.6H124.8z M124,130.3c-1.6-1.2-3.2-1.2-5.1-1.2h-3.8v11h3.7
			c1.8,0,4.1-0.2,5.4-1.5c1.1-1,1.7-2.4,1.7-4C126,132.8,125.3,131.3,124,130.3z"/>
		<path fill="#F68B1F" d="M136.3,159.3v-36.9h6.8v36.9H136.3z"/>
		<path fill="#F68B1F" d="M176,132.9c-2.3-2.8-6-4.6-9.7-4.6c-6.7,0-12.1,5.8-12.1,12.8c0,6.5,5.6,12.5,12.2,12.5
			c3.6,0,6.8-1.6,9.3-4.3h7.9c-2.8,6.7-10,10.9-17.1,10.9c-10.6,0-19.1-8.8-19.1-19.3c0-10.5,8.6-19.1,18.9-19.1
			c7.4,0,14.7,4.3,17.5,11.2H176z"/>
		<path fill="#F68B1F" d="M212.9,159.3l-4-9.5h-13.1l-4.1,9.5h-7.5l15.3-36.9h5.3l15.5,36.9H212.9z M202.2,132l-3.9,11.2h7.9
			L202.2,132z"/>
		<path fill="#F68B1F" d="M232.4,160.2c-6.3,0-11.9-4.8-11.9-11.3h7.1c0,2.9,2.4,4.6,5.1,4.6c2.6,0,4.8-1.9,4.8-4.6
			c0-4-3.4-5.2-6.4-6.2c-2.4-0.8-4.5-1.5-6.4-3.4c-1.8-1.8-2.9-4.5-2.9-7.1c0-6,5-10.5,10.9-10.5c5.7,0,10.8,4.7,10.8,10.5h-7
			c-0.1-2.3-2-3.8-4.1-3.8c-2.2,0-3.7,1.7-3.6,3.9c0,2.7,2.4,3.8,4.6,4.5c2.6,0.9,5.1,1.6,7.2,3.4c2.6,2.1,3.9,4.8,3.9,8.4
			C244.3,155.1,238.9,160.2,232.4,160.2z"/>
	</g>
	<path display="inline" fill="#F68B1F" d="M189.3,1.8c0.7-1.5,2.5-2.2,4.1-1.5l5.6,2.6c1.5,0.7,2.2,2.5,1.5,4.1l0,0
		c-0.7,1.5-2.5,2.2-4.1,1.5l-5.6-2.6C189.2,5.1,188.6,3.3,189.3,1.8L189.3,1.8z"/>
	<path display="inline" fill="#F68B1F" d="M175.8,8.9c-0.3-1.7,0.8-3.2,2.5-3.5l6-1c1.7-0.3,3.2,0.8,3.5,2.5l0,0
		c0.3,1.7-0.8,3.2-2.5,3.5l-6,1C177.6,11.6,176,10.5,175.8,8.9L175.8,8.9z"/>
	<path display="inline" fill="#58595B" d="M203.5,8.3c1.6,0.6,2.3,2.4,1.7,4l-2.3,5.7c-0.6,1.6-2.4,2.3-4,1.7l0,0
		c-1.6-0.6-2.3-2.4-1.7-4l2.3-5.7C200.2,8.4,201.9,7.7,203.5,8.3L203.5,8.3z"/>
	<path display="inline" fill="#61BE79" d="M190.7,8c1.6-0.4,3.3,0.6,3.7,2.3l1.4,6c0.4,1.6-0.6,3.3-2.3,3.7l0,0
		c-1.6,0.4-3.3-0.6-3.7-2.3l-1.4-6C188,10.1,189,8.4,190.7,8L190.7,8z"/>
	<path display="inline" fill="#58595B" d="M193.3,22c0.7-1.5,2.5-2.2,4.1-1.5l5.6,2.6c1.5,0.7,2.2,2.5,1.5,4.1l0,0
		c-0.7,1.5-2.5,2.2-4.1,1.5l-5.6-2.6C193.3,25.4,192.6,23.6,193.3,22L193.3,22z"/>
	<path display="inline" fill="#61BE79" d="M173.9,25.1c0.7-1.5,2.5-2.2,4.1-1.5l5.6,2.6c1.5,0.7,2.2,2.5,1.5,4.1l0,0
		c-0.7,1.5-2.5,2.2-4.1,1.5l-5.6-2.6C173.9,28.4,173.2,26.6,173.9,25.1L173.9,25.1z"/>
	<path display="inline" fill="#58595B" d="M201.9,3c0.4-1.6,2-2.7,3.7-2.3l6,1.4c1.6,0.4,2.7,2,2.3,3.7l0,0c-0.4,1.6-2,2.7-3.7,2.3
		l-6-1.4C202.6,6.3,201.6,4.7,201.9,3L201.9,3z"/>
	<path display="inline" fill="#58595B" d="M185.9,11.6c1.6,0.6,2.3,2.4,1.7,4l-2.3,5.7c-0.6,1.6-2.4,2.3-4,1.7l0,0
		c-1.6-0.6-2.3-2.4-1.7-4l2.3-5.7C182.6,11.8,184.3,11,185.9,11.6L185.9,11.6z"/>
	<path display="inline" fill="#F68B1F" d="M188.2,21.3c1.6-0.4,3.3,0.6,3.7,2.3l1.4,6c0.4,1.6-0.6,3.3-2.3,3.7l0,0
		c-1.6,0.4-3.3-0.6-3.7-2.3l-1.4-6C185.5,23.3,186.5,21.7,188.2,21.3L188.2,21.3z"/>
	<path display="inline" fill="#61BE79" d="M220.9,3.5c1.6-0.4,3.3,0.6,3.7,2.2l1.5,5.9c0.4,1.6-0.6,3.3-2.2,3.7l0,0
		c-1.6,0.4-3.3-0.6-3.7-2.2l-1.5-5.9C218.3,5.6,219.2,4,220.9,3.5L220.9,3.5z"/>
	<path display="inline" fill="#F68B1F" d="M206.4,14.3c-0.3-1.7,0.8-3.2,2.5-3.5l6-1c1.7-0.3,3.2,0.8,3.5,2.5l0,0
		c0.3,1.7-0.8,3.2-2.5,3.5l-6,1C208.3,17.1,206.7,16,206.4,14.3L206.4,14.3z"/>
	<path display="inline" fill="#F68B1F" d="M232.3,11.8c1.4,1,1.7,2.9,0.8,4.3l-3.5,5c-1,1.4-2.9,1.7-4.3,0.8l0,0
		c-1.4-1-1.7-2.9-0.8-4.3l3.5-5C229,11.2,230.9,10.8,232.3,11.8L232.3,11.8z"/>
	<path display="inline" fill="#58595B" d="M217.9,16.2c1.6-0.4,3.3,0.6,3.7,2.3l1.4,6c0.4,1.6-0.6,3.3-2.3,3.7l0,0
		c-1.6,0.4-3.3-0.6-3.7-2.3l-1.4-6C215.2,18.2,216.2,16.6,217.9,16.2L217.9,16.2z"/>
	<path display="inline" fill="#61BE79" d="M224.2,25.8c0.7-1.5,2.5-2.2,4.1-1.5l5.6,2.6c1.5,0.7,2.2,2.5,1.5,4.1l0,0
		c-0.7,1.5-2.5,2.2-4.1,1.5l-5.6-2.6C224.1,29.1,223.4,27.3,224.2,25.8L224.2,25.8z"/>
	<path display="inline" fill="#61BE79" d="M244.3,5.5c1.6,0.6,2.3,2.4,1.7,4l-2.3,5.7c-0.6,1.6-2.4,2.3-4,1.7l0,0
		c-1.6-0.6-2.3-2.4-1.7-4l2.3-5.7C241,5.6,242.8,4.9,244.3,5.5L244.3,5.5z"/>
	<path display="inline" fill="#F68B1F" d="M241.7,30.2c1.4,1,1.7,2.9,0.7,4.3l-3.5,5c-1,1.4-2.9,1.7-4.3,0.7l0,0
		c-1.4-1-1.7-2.9-0.7-4.3l3.5-5C238.4,29.5,240.3,29.2,241.7,30.2L241.7,30.2z"/>
	<path display="inline" fill="#F68B1F" d="M226.6,6.2c0.4-1.6,2-2.7,3.7-2.3l6,1.4c1.6,0.4,2.7,2,2.3,3.7l0,0
		c-0.4,1.6-2,2.7-3.7,2.3l-6-1.4C227.3,9.5,226.2,7.8,226.6,6.2L226.6,6.2z"/>
	<path display="inline" fill="#58595B" d="M234.5,17.2c1.4-0.9,3.3-0.4,4.2,1l3.2,5.2c0.9,1.4,0.4,3.3-1,4.2l0,0
		c-1.4,0.9-3.3,0.4-4.2-1l-3.2-5.2C232.6,20,233,18.1,234.5,17.2L234.5,17.2z"/>
	<path display="inline" fill="#F68B1F" d="M219.5,34.9c0.2-1.7,1.7-2.9,3.3-2.7l6.1,0.6c1.7,0.2,2.9,1.7,2.7,3.3l0,0
		c-0.2,1.7-1.7,2.9-3.3,2.7l-6.1-0.6C220.5,38.1,219.3,36.6,219.5,34.9L219.5,34.9z"/>
	<path display="inline" fill="#61BE79" d="M205.3,18.7c1.1-1.3,3.1-1.4,4.3-0.2l4.6,4.1c1.3,1.1,1.4,3.1,0.2,4.3l0,0
		c-1.1,1.3-3.1,1.4-4.3,0.2l-4.6-4.1C204.2,21.9,204.1,20,205.3,18.7L205.3,18.7z"/>
	<path display="inline" fill="#58595B" d="M263.6,23c-0.6,1.6-2.4,2.3-4,1.7l-5.7-2.3c-1.6-0.6-2.3-2.4-1.7-4l0,0
		c0.6-1.6,2.4-2.3,4-1.7L262,19C263.5,19.7,264.3,21.5,263.6,23L263.6,23z"/>
	<path display="inline" fill="#F68B1F" d="M249.9,12.9c1.5,0.7,2.2,2.5,1.4,4.1l-2.6,5.5c-0.7,1.5-2.5,2.2-4.1,1.4l0,0
		c-1.5-0.7-2.2-2.5-1.4-4.1l2.6-5.5C246.5,12.9,248.4,12.2,249.9,12.9L249.9,12.9z"/>
	<path display="inline" fill="#61BE79" d="M268.6,22.3c1.6,0.4,2.7,2,2.3,3.7l-1.4,6c-0.4,1.6-2,2.7-3.7,2.3l0,0
		c-1.6-0.4-2.7-2-2.3-3.7l1.4-6C265.3,23,267,21.9,268.6,22.3L268.6,22.3z"/>
	<path display="inline" fill="#58595B" d="M268.3,40.5c0.4,1.6-0.6,3.3-2.2,3.7l-6,1.5c-1.6,0.4-3.3-0.6-3.7-2.2l0,0
		c-0.4-1.6,0.6-3.3,2.2-3.7l6-1.5C266.2,37.8,267.9,38.8,268.3,40.5L268.3,40.5z"/>
	<path display="inline" fill="#F68B1F" d="M260.8,13.4c-0.8,1.5-2.6,2.1-4.1,1.3l-5.4-2.9c-1.5-0.8-2.1-2.6-1.3-4.1l0,0
		c0.8-1.5,2.6-2.1,4.1-1.3l5.4,2.9C261,10.1,261.6,11.9,260.8,13.4L260.8,13.4z"/>
	<path display="inline" fill="#F68B1F" d="M257.6,25.9c1.7-0.3,3.2,0.9,3.5,2.5l1,6.1c0.3,1.7-0.9,3.2-2.5,3.5l0,0
		c-1.7,0.3-3.2-0.9-3.5-2.5l-1-6.1C254.8,27.7,255.9,26.1,257.6,25.9L257.6,25.9z"/>
	<path display="inline" fill="#58595B" d="M264.8,7.8c1.7-0.3,3.2,0.9,3.5,2.5l1,6.1c0.3,1.7-0.9,3.2-2.5,3.5l0,0
		c-1.7,0.3-3.2-0.9-3.5-2.5l-1-6.1C262,9.6,263.1,8,264.8,7.8L264.8,7.8z"/>
	<path display="inline" fill="#61BE79" d="M259.9,51.8c-1,1.4-2.9,1.7-4.3,0.7l-5-3.5c-1.4-1-1.7-2.9-0.7-4.3l0,0
		c1-1.4,2.9-1.7,4.3-0.7l5,3.5C260.6,48.5,260.9,50.4,259.9,51.8L259.9,51.8z"/>
	<path display="inline" fill="#58595B" d="M255.6,37.3c0.4,1.6-0.7,3.3-2.3,3.6l-6,1.3c-1.6,0.4-3.3-0.7-3.6-2.3l0,0
		c-0.4-1.6,0.7-3.3,2.3-3.6l6-1.3C253.6,34.6,255.2,35.7,255.6,37.3L255.6,37.3z"/>
	<path display="inline" fill="#F68B1F" d="M246,43.5c1.5,0.7,2.2,2.5,1.4,4.1l-2.6,5.5c-0.7,1.5-2.5,2.2-4.1,1.4l0,0
		c-1.5-0.7-2.2-2.5-1.4-4.1l2.6-5.5C242.6,43.4,244.5,42.8,246,43.5L246,43.5z"/>
	<path display="inline" fill="#58595B" d="M266.1,63.9c-0.6,1.6-2.4,2.3-4,1.7l-5.7-2.3c-1.6-0.6-2.3-2.4-1.7-4l0,0
		c0.6-1.6,2.4-2.3,4-1.7l5.7,2.3C266,60.5,266.7,62.3,266.1,63.9L266.1,63.9z"/>
	<path display="inline" fill="#F68B1F" d="M241.4,61c-1,1.4-2.9,1.7-4.3,0.7l-5-3.6c-1.4-1-1.7-2.9-0.7-4.3l0,0
		c1-1.4,2.9-1.7,4.3-0.7l5,3.6C242.1,57.7,242.4,59.7,241.4,61L241.4,61z"/>
	<path display="inline" fill="#F68B1F" d="M265.6,46.2c1.6,0.4,2.7,2,2.3,3.7l-1.4,6c-0.4,1.6-2,2.7-3.7,2.3l0,0
		c-1.6-0.4-2.7-2-2.3-3.7l1.4-6C262.3,46.8,263.9,45.8,265.6,46.2L265.6,46.2z"/>
	<path display="inline" fill="#58595B" d="M254.4,53.8c0.9,1.4,0.4,3.3-1,4.2l-5.3,3.2c-1.4,0.9-3.3,0.4-4.2-1l0,0
		c-0.9-1.4-0.4-3.3,1-4.2l5.3-3.2C251.6,51.9,253.5,52.4,254.4,53.8L254.4,53.8z"/>
	<path display="inline" fill="#58595B" d="M278.1,94.2c-0.5,1.6-2.2,2.5-3.8,2l-5.8-1.9c-1.6-0.5-2.5-2.2-2-3.8l0,0
		c0.5-1.6,2.2-2.5,3.8-2l5.8,1.9C277.8,90.8,278.7,92.5,278.1,94.2L278.1,94.2z"/>
	<path display="inline" fill="#61BE79" d="M229.8,40.9c1.3-1.1,3.2-0.9,4.3,0.3l4,4.7c1.1,1.3,0.9,3.2-0.3,4.3l0,0
		c-1.3,1.1-3.2,0.9-4.3-0.3l-4-4.7C228.4,44,228.5,42.1,229.8,40.9L229.8,40.9z"/>
	<path display="inline" fill="#61BE79" d="M253.2,24.7c1.2,1.1,1.3,3.1,0.2,4.3l-4.1,4.5c-1.1,1.2-3.1,1.3-4.3,0.2l0,0
		c-1.2-1.1-1.3-3.1-0.2-4.3l4.1-4.5C250,23.6,251.9,23.5,253.2,24.7L253.2,24.7z"/>
	<path display="inline" fill="#61BE79" d="M271.8,19.1c-1.4-1-1.7-2.9-0.8-4.2l3.5-5.1c1-1.4,2.9-1.7,4.2-0.8l0,0
		c1.4,1,1.7,2.9,0.8,4.2l-3.5,5.1C275.1,19.8,273.2,20.1,271.8,19.1L271.8,19.1z"/>
	<path display="inline" fill="#58595B" d="M321.4,30.4c-0.2,1.7-1.8,2.8-3.5,2.6l-6.1-0.9c-1.7-0.2-2.8-1.8-2.6-3.5l0,0
		c0.2-1.7,1.8-2.8,3.5-2.6l6.1,0.9C320.5,27.1,321.6,28.7,321.4,30.4L321.4,30.4z"/>
	<path display="inline" fill="#61BE79" d="M290.8,37.3c-0.6,1.6-2.4,2.3-4,1.7l-5.7-2.3c-1.6-0.6-2.3-2.4-1.7-4l0,0
		c0.6-1.6,2.4-2.3,4-1.7l5.7,2.3C290.6,34,291.4,35.8,290.8,37.3L290.8,37.3z"/>
	<path display="inline" fill="#61BE79" d="M321.2,14.3c1.7,0,3.1,1.3,3.1,3l0.1,6.1c0,1.7-1.3,3.1-3,3.1l0,0c-1.7,0-3.1-1.3-3.1-3
		l-0.1-6.1C318.1,15.7,319.4,14.3,321.2,14.3L321.2,14.3z"/>
	<path display="inline" fill="#F68B1F" d="M303.9,21.2c1.7-0.2,3.2,1,3.4,2.7l0.7,6.1c0.2,1.7-1,3.2-2.7,3.4l0,0
		c-1.7,0.2-3.2-1-3.4-2.7l-0.7-6.1C301,22.9,302.2,21.4,303.9,21.2L303.9,21.2z"/>
	<path display="inline" fill="#58595B" d="M283.4,6.9c1.7-0.2,3.2,1,3.4,2.6l0.8,6.1c0.2,1.7-1,3.2-2.6,3.4l0,0
		c-1.7,0.2-3.2-1-3.4-2.6l-0.8-6.1C280.6,8.7,281.8,7.2,283.4,6.9L283.4,6.9z"/>
	<path display="inline" fill="#F68B1F" d="M313.7,54.5c-1.7-0.3-2.8-1.8-2.5-3.5l1-6.1c0.3-1.7,1.8-2.8,3.5-2.5l0,0
		c1.7,0.3,2.8,1.8,2.5,3.5l-1,6.1C316.9,53.6,315.3,54.8,313.7,54.5L313.7,54.5z"/>
	<path display="inline" fill="#61BE79" d="M318.5,38.1c-0.4,1.6-2,2.7-3.6,2.3l-6-1.3c-1.6-0.4-2.7-2-2.3-3.6l0,0
		c0.4-1.6,2-2.7,3.6-2.3l6,1.3C317.8,34.8,318.8,36.4,318.5,38.1L318.5,38.1z"/>
	<path display="inline" fill="#58595B" d="M316,59c0,1.7-1.4,3.1-3.1,3.1l-6.1,0c-1.7,0-3.1-1.4-3.1-3.1v0c0-1.7,1.4-3.1,3.1-3.1
		l6.1,0C314.6,56,316,57.3,316,59L316,59z"/>
	<path display="inline" fill="#61BE79" d="M292,94.8c0,1.7-1.4,3.1-3.1,3.1l-6.1,0c-1.7,0-3.1-1.4-3.1-3.1v0c0-1.7,1.4-3.1,3.1-3.1
		l6.1,0C290.7,91.7,292,93.1,292,94.8L292,94.8z"/>
	<path display="inline" fill="#58595B" d="M296.1,61.1c-1.5,0.8-3.3,0.2-4.1-1.3l-2.8-5.5c-0.8-1.5-0.2-3.3,1.3-4.1l0,0
		c1.5-0.8,3.3-0.2,4.1,1.3l2.8,5.5C298.2,58.5,297.6,60.4,296.1,61.1L296.1,61.1z"/>
	<path display="inline" fill="#F68B1F" d="M321.5,42.8c-1.6-0.4-2.6-2.1-2.2-3.7l1.6-5.9c0.4-1.6,2.1-2.6,3.7-2.2l0,0
		c1.6,0.4,2.6,2.1,2.2,3.7l-1.6,5.9C324.8,42.3,323.2,43.3,321.5,42.8L321.5,42.8z"/>
	<path display="inline" fill="#61BE79" d="M309.2,49.4c0.6,1.6-0.1,3.3-1.6,4l-5.7,2.4c-1.6,0.6-3.3-0.1-4-1.6l0,0
		c-0.6-1.6,0.1-3.3,1.6-4l5.7-2.4C306.8,47.1,308.5,47.8,309.2,49.4L309.2,49.4z"/>
	<path display="inline" fill="#61BE79" d="M335.2,41.7c0.6,1.6-0.1,3.3-1.6,4l-5.7,2.4c-1.6,0.6-3.3-0.1-4-1.6l0,0
		c-0.6-1.6,0.1-3.3,1.6-4l5.7-2.4C332.8,39.4,334.5,40.1,335.2,41.7L335.2,41.7z"/>
	<path display="inline" fill="#F68B1F" d="M281.5,59.2c-1.6-0.6-2.3-2.4-1.7-4l2.3-5.7c0.6-1.6,2.4-2.3,4-1.7l0,0
		c1.6,0.6,2.3,2.4,1.7,4l-2.3,5.7C284.9,59.1,283.1,59.8,281.5,59.2L281.5,59.2z"/>
	<path display="inline" fill="#F68B1F" d="M296.2,80.8c-1.7-0.3-2.8-1.9-2.5-3.6l1.1-6c0.3-1.7,1.9-2.8,3.6-2.5l0,0
		c1.7,0.3,2.8,1.9,2.5,3.6l-1.1,6C299.4,80,297.8,81.1,296.2,80.8L296.2,80.8z"/>
	<path display="inline" fill="#F68B1F" d="M297.5,49.7c-1.5,0.7-3.3,0.1-4.1-1.4l-2.7-5.5c-0.7-1.5-0.1-3.3,1.4-4.1l0,0
		c1.5-0.7,3.3-0.1,4.1,1.4l2.7,5.5C299.7,47.1,299,48.9,297.5,49.7L297.5,49.7z"/>
	<path display="inline" fill="#58595B" d="M289.4,44.1c-0.4,1.6-2,2.7-3.6,2.3l-6-1.3c-1.6-0.4-2.7-2-2.3-3.6l0,0
		c0.4-1.6,2-2.7,3.6-2.3l6,1.3C288.7,40.8,289.7,42.4,289.4,44.1L289.4,44.1z"/>
	<path display="inline" fill="#58595B" d="M270.5,65.7c-1.7-0.3-2.8-1.8-2.6-3.5l0.9-6.1c0.3-1.7,1.8-2.8,3.5-2.6l0,0
		c1.7,0.3,2.8,1.8,2.6,3.5l-0.9,6.1C273.8,64.9,272.2,66,270.5,65.7L270.5,65.7z"/>
	<path display="inline" fill="#61BE79" d="M269.8,87.4c-1.7-0.3-2.8-1.8-2.6-3.5l0.9-6.1c0.3-1.7,1.8-2.8,3.5-2.6l0,0
		c1.7,0.3,2.8,1.8,2.6,3.5l-0.9,6.1C273,86.5,271.5,87.6,269.8,87.4L269.8,87.4z"/>
	<path display="inline" fill="#58595B" d="M271.2,41.3c-1.6-0.6-2.3-2.4-1.7-4l2.3-5.7c0.6-1.6,2.4-2.3,4-1.7l0,0
		c1.6,0.6,2.3,2.4,1.7,4l-2.3,5.7C274.5,41.2,272.7,42,271.2,41.3L271.2,41.3z"/>
	<path display="inline" fill="#61BE79" d="M288,63.8c0,1.7-1.4,3.1-3.1,3.1l-6.1,0c-1.7,0-3.1-1.4-3.1-3.1v0c0-1.7,1.4-3.1,3.1-3.1
		l6.1,0C286.7,60.7,288,62.1,288,63.8L288,63.8z"/>
	<path display="inline" fill="#61BE79" d="M277.5,103.3c-0.8,1.5-2.7,2-4.2,1.2l-5.4-3c-1.5-0.8-2-2.7-1.2-4.2l0,0
		c0.8-1.5,2.7-2,4.2-1.2l5.4,3C277.8,100,278.3,101.8,277.5,103.3L277.5,103.3z"/>
	<path display="inline" fill="#F68B1F" d="M291.8,103c-0.3,1.7-1.9,2.7-3.6,2.4l-6-1.2c-1.7-0.3-2.7-1.9-2.4-3.6l0,0
		c0.3-1.7,1.9-2.7,3.6-2.4l6,1.2C291.1,99.7,292.1,101.3,291.8,103L291.8,103z"/>
	<path display="inline" fill="#61BE79" d="M278.6,53.2c-1.2,1.2-3.1,1.2-4.3,0l-4.3-4.4c-1.2-1.2-1.2-3.1,0-4.3l0,0
		c1.2-1.2,3.1-1.2,4.3,0l4.3,4.4C279.9,50.1,279.8,52,278.6,53.2L278.6,53.2z"/>
	<path display="inline" fill="#F68B1F" d="M339.6,165.9c-1.2-1.1-1.3-3.1-0.2-4.3l4.1-4.5c1.1-1.2,3.1-1.3,4.3-0.2l0,0
		c1.2,1.1,1.3,3.1,0.2,4.3l-4.1,4.5C342.8,167,340.9,167.1,339.6,165.9L339.6,165.9z"/>
	<path display="inline" fill="#58595B" d="M353.7,156.1c-1.6-0.6-2.3-2.4-1.7-4l2.2-5.7c0.6-1.6,2.4-2.3,4-1.7l0,0
		c1.6,0.6,2.3,2.4,1.7,4l-2.2,5.7C357.1,155.9,355.3,156.7,353.7,156.1L353.7,156.1z"/>
	<path display="inline" fill="#61BE79" d="M350.6,153.5c-0.9,1.4-2.8,1.8-4.2,0.9l-5.2-3.3c-1.4-0.9-1.8-2.8-0.9-4.2l0,0
		c0.9-1.4,2.8-1.8,4.2-0.9l5.2,3.3C351.1,150.2,351.5,152.1,350.6,153.5L350.6,153.5z"/>
	<path display="inline" fill="#58595B" d="M327.9,170.8c-1.5-0.8-2-2.7-1.2-4.2l3-5.3c0.8-1.5,2.7-2,4.2-1.2l0,0
		c1.5,0.8,2,2.7,1.2,4.2l-3,5.3C331.2,171.2,329.3,171.7,327.9,170.8L327.9,170.8z"/>
	<path display="inline" fill="#58595B" d="M335.8,145.2c-1.6-0.5-2.6-2.1-2.1-3.8l1.7-5.9c0.5-1.6,2.1-2.6,3.8-2.1l0,0
		c1.6,0.5,2.6,2.1,2.1,3.8l-1.7,5.9C339.1,144.7,337.4,145.6,335.8,145.2L335.8,145.2z"/>
	<path display="inline" fill="#61BE79" d="M360.5,144.2c-1.6-0.5-2.6-2.1-2.1-3.8l1.7-5.9c0.5-1.6,2.1-2.6,3.8-2.1l0,0
		c1.6,0.5,2.6,2.1,2.1,3.8l-1.7,5.9C363.8,143.7,362.2,144.7,360.5,144.2L360.5,144.2z"/>
	<path display="inline" fill="#F68B1F" d="M325.8,115.3c-0.6,1.6-2.4,2.4-3.9,1.8l-5.7-2.2c-1.6-0.6-2.4-2.4-1.8-3.9l0,0
		c0.6-1.6,2.4-2.4,3.9-1.8l5.7,2.2C325.6,112,326.4,113.7,325.8,115.3L325.8,115.3z"/>
	<path display="inline" fill="#58595B" d="M339,158.9c-1.5,0.7-3.3,0-4-1.6l-2.5-5.6c-0.7-1.5,0-3.3,1.6-4l0,0c1.5-0.7,3.3,0,4,1.6
		l2.5,5.6C341.2,156.4,340.5,158.2,339,158.9L339,158.9z"/>
	<path display="inline" fill="#F68B1F" d="M354.1,144c-0.4,1.6-2,2.7-3.7,2.3l-6-1.4c-1.6-0.4-2.7-2-2.3-3.7l0,0
		c0.4-1.6,2-2.7,3.7-2.3l6,1.4C353.5,140.7,354.5,142.3,354.1,144L354.1,144z"/>
	<path display="inline" fill="#61BE79" d="M301.5,133.1c-1.2,1.1-3.2,1.1-4.3-0.2l-4.2-4.5c-1.1-1.2-1.1-3.2,0.2-4.3l0,0
		c1.2-1.1,3.2-1.1,4.3,0.2l4.2,4.5C302.8,130.1,302.7,132,301.5,133.1L301.5,133.1z"/>
	<path display="inline" fill="#58595B" d="M311.1,150.9c0.8-1.5,2.7-2,4.2-1.1l5.3,3.1c1.5,0.8,2,2.7,1.1,4.2l0,0
		c-0.8,1.5-2.7,2-4.2,1.1l-5.3-3.1C310.8,154.2,310.3,152.3,311.1,150.9L311.1,150.9z"/>
	<path display="inline" fill="#61BE79" d="M323.3,162.7c-1.4-0.9-1.8-2.8-0.9-4.2l3.4-5.1c0.9-1.4,2.8-1.8,4.2-0.9l0,0
		c1.4,0.9,1.8,2.8,0.9,4.2l-3.4,5.1C326.7,163.3,324.8,163.7,323.3,162.7L323.3,162.7z"/>
	<path display="inline" fill="#61BE79" d="M306.1,150.9c-1.6-0.6-2.4-2.4-1.8-3.9l2.2-5.7c0.6-1.6,2.4-2.4,3.9-1.8l0,0
		c1.6,0.6,2.4,2.4,1.8,3.9l-2.2,5.7C309.4,150.7,307.6,151.5,306.1,150.9L306.1,150.9z"/>
	<path display="inline" fill="#F68B1F" d="M308.9,133c-0.2-1.7,1-3.2,2.7-3.4l6.1-0.7c1.7-0.2,3.2,1,3.4,2.7l0,0
		c0.2,1.7-1,3.2-2.7,3.4l-6.1,0.7C310.6,135.9,309.1,134.7,308.9,133L308.9,133z"/>
	<path display="inline" fill="#F68B1F" d="M312.6,160.8c1-1.4,2.9-1.7,4.3-0.7l5,3.6c1.4,1,1.7,2.9,0.7,4.3l0,0
		c-1,1.4-2.9,1.7-4.3,0.7l-5-3.6C311.9,164.1,311.6,162.2,312.6,160.8L312.6,160.8z"/>
	<path display="inline" fill="#58595B" d="M317.5,148.9c-1.7,0-3.1-1.3-3.1-3l-0.2-6.1c0-1.7,1.3-3.1,3-3.1l0,0c1.7,0,3.1,1.3,3.1,3
		l0.2,6.1C320.5,147.4,319.2,148.8,317.5,148.9L317.5,148.9z"/>
	<path display="inline" fill="#F68B1F" d="M354.7,140.2c-1.7,0-3.1-1.3-3.1-3l-0.2-6.1c0-1.7,1.3-3.1,3-3.1l0,0c1.7,0,3.1,1.3,3.1,3
		l0.2,6.1C357.7,138.8,356.4,140.2,354.7,140.2L354.7,140.2z"/>
	<path display="inline" fill="#58595B" d="M318.7,122.8c1.1-1.2,3.1-1.3,4.3-0.2l4.5,4.2c1.2,1.1,1.3,3.1,0.2,4.3l0,0
		c-1.1,1.2-3.1,1.3-4.3,0.2l-4.5-4.2C317.6,126,317.5,124.1,318.7,122.8L318.7,122.8z"/>
	<path display="inline" fill="#61BE79" d="M321,137.8c-0.1-1.7,1.1-3.2,2.8-3.3l6.1-0.5c1.7-0.1,3.2,1.1,3.3,2.8l0,0
		c0.1,1.7-1.1,3.2-2.8,3.3l-6.1,0.5C322.6,140.7,321.1,139.5,321,137.8L321,137.8z"/>
	<path display="inline" fill="#F68B1F" d="M331.3,132.9c-1.4-0.9-1.8-2.8-0.9-4.2l3.4-5.1c0.9-1.4,2.8-1.8,4.2-0.9l0,0
		c1.4,0.9,1.8,2.8,0.9,4.2l-3.4,5.1C334.7,133.5,332.8,133.9,331.3,132.9L331.3,132.9z"/>
	<path display="inline" fill="#58595B" d="M338,116c1.2-1.2,3.1-1.3,4.3-0.1l4.5,4.2c1.2,1.2,1.3,3.1,0.1,4.3l0,0
		c-1.2,1.2-3.1,1.3-4.3,0.1l-4.5-4.2C336.9,119.2,336.9,117.2,338,116L338,116z"/>
	<path display="inline" fill="#61BE79" d="M312.3,127.7c-1.6-0.6-2.4-2.4-1.8-3.9l2.2-5.7c0.6-1.6,2.4-2.4,3.9-1.8l0,0
		c1.6,0.6,2.4,2.4,1.8,3.9l-2.2,5.7C315.7,127.5,313.9,128.3,312.3,127.7L312.3,127.7z"/>
	<path display="inline" fill="#61BE79" d="M324.5,121.6c-0.7-1.5,0-3.3,1.6-4l5.6-2.4c1.5-0.7,3.3,0,4,1.6l0,0c0.7,1.5,0,3.3-1.6,4
		l-5.6,2.4C326.9,123.9,325.1,123.2,324.5,121.6L324.5,121.6z"/>
	<path display="inline" fill="#61BE79" d="M348.8,136.9c-1.4,0.9-3.3,0.5-4.2-0.9l-3.3-5.2c-0.9-1.4-0.5-3.3,0.9-4.2l0,0
		c1.4-0.9,3.3-0.5,4.2,0.9l3.3,5.2C350.6,134.1,350.2,136,348.8,136.9L348.8,136.9z"/>
	<path display="inline" fill="#F68B1F" d="M321.7,150.6c-1.1-1.3-0.9-3.2,0.4-4.3l4.7-3.9c1.3-1.1,3.2-0.9,4.3,0.4l0,0
		c1.1,1.3,0.9,3.2-0.4,4.3L326,151C324.7,152.1,322.8,152,321.7,150.6L321.7,150.6z"/>
	<path display="inline" fill="#61BE79" d="M330.3,176.4c-0.9-1.4-0.5-3.3,0.9-4.2l5.1-3.4c1.4-0.9,3.3-0.5,4.2,0.9l0,0
		c0.9,1.4,0.5,3.3-0.9,4.2l-5.1,3.4C333.2,178.2,331.3,177.9,330.3,176.4L330.3,176.4z"/>
	<path display="inline" fill="#61BE79" d="M307.1,208.2c-1.7,0-3-1.4-3-3.1l0.1-6.1c0-1.7,1.4-3,3.1-3l0,0c1.7,0,3,1.4,3,3.1
		l-0.1,6.1C310.2,206.9,308.8,208.3,307.1,208.2L307.1,208.2z"/>
	<path display="inline" fill="#58595B" d="M317.1,203.9c-1.5,0.7-3.3,0-4-1.6l-2.5-5.6c-0.7-1.5,0-3.3,1.6-4l0,0
		c1.5-0.7,3.3,0,4,1.6l2.5,5.6C319.4,201.4,318.7,203.2,317.1,203.9L317.1,203.9z"/>
	<path display="inline" fill="#F68B1F" d="M311.1,206.5c0.8-1.5,2.7-2,4.2-1.1l5.3,3.1c1.5,0.8,2,2.7,1.1,4.2l0,0
		c-0.8,1.5-2.7,2-4.2,1.1l-5.3-3.1C310.8,209.9,310.3,208,311.1,206.5L311.1,206.5z"/>
	<path display="inline" fill="#61BE79" d="M316.8,193.4c-1.4-0.9-1.8-2.8-0.9-4.2l3.4-5.1c0.9-1.4,2.8-1.8,4.2-0.9l0,0
		c1.4,0.9,1.8,2.8,0.9,4.2l-3.4,5.1C320.1,194,318.2,194.4,316.8,193.4L316.8,193.4z"/>
	<path display="inline" fill="#F68B1F" d="M305.6,193.7c-1.1-1.2-1.1-3.2,0.2-4.3l4.5-4.2c1.2-1.1,3.2-1.1,4.3,0.2l0,0
		c1.1,1.2,1.1,3.2-0.2,4.3l-4.5,4.2C308.7,195.1,306.8,195,305.6,193.7L305.6,193.7z"/>
	<path display="inline" fill="#F68B1F" d="M327.5,181.4c-1.5,0.7-3.3,0-4-1.5l-2.5-5.6c-0.7-1.5,0-3.3,1.5-4l0,0
		c1.5-0.7,3.3,0,4,1.5l2.5,5.6C329.7,178.9,329,180.7,327.5,181.4L327.5,181.4z"/>
	<path display="inline" fill="#58595B" d="M308.9,180.5c-0.1-1.7,1.1-3.2,2.8-3.3l6.1-0.5c1.7-0.1,3.2,1.1,3.3,2.8l0,0
		c0.1,1.7-1.1,3.2-2.8,3.3l-6.1,0.5C310.5,183.4,309.1,182.2,308.9,180.5L308.9,180.5z"/>
	<path display="inline" fill="#61BE79" d="M307.5,171.2c0.3-1.7,1.9-2.8,3.5-2.5l6,1.1c1.7,0.3,2.8,1.9,2.5,3.5l0,0
		c-0.3,1.7-1.9,2.8-3.5,2.5l-6-1.1C308.3,174.5,307.2,172.9,307.5,171.2L307.5,171.2z"/>
	<path display="inline" fill="#58595B" d="M310.8,107.9c1.6,0.5,2.5,2.2,2.1,3.8l-1.7,5.9c-0.5,1.6-2.2,2.5-3.8,2.1l0,0
		c-1.6-0.5-2.5-2.2-2.1-3.8l1.7-5.9C307.5,108.4,309.2,107.5,310.8,107.9L310.8,107.9z"/>
	<path display="inline" fill="#58595B" d="M306.4,132.5c1.5,0.8,2,2.7,1.1,4.2l-3.1,5.3c-0.8,1.5-2.7,2-4.2,1.1l0,0
		c-1.5-0.8-2-2.7-1.1-4.2l3.1-5.3C303.1,132.1,305,131.6,306.4,132.5L306.4,132.5z"/>
	<path display="inline" fill="#F68B1F" d="M300.3,118.9c1.4-1,3.3-0.7,4.3,0.6l3.7,4.9c1,1.4,0.7,3.3-0.6,4.3l0,0
		c-1.4,1-3.3,0.7-4.3-0.6l-3.7-4.9C298.7,121.9,299,120,300.3,118.9L300.3,118.9z"/>
	<path display="inline" fill="#61BE79" d="M292,82.8c-1.2,1.2-3.1,1.2-4.3,0l-4.3-4.4c-1.2-1.2-1.2-3.1,0-4.3l0,0
		c1.2-1.2,3.1-1.2,4.3,0l4.3,4.4C293.2,79.6,293.2,81.6,292,82.8L292,82.8z"/>
	<path display="inline" fill="#58595B" d="M296.3,116.7c-1.4,0.9-3.3,0.4-4.2-1l-3.2-5.2c-0.9-1.4-0.4-3.3,1-4.2l0,0
		c1.4-0.9,3.3-0.4,4.2,1l3.2,5.2C298.2,113.9,297.7,115.8,296.3,116.7L296.3,116.7z"/>
	<path display="inline" fill="#61BE79" d="M302.4,116.5c-1.7,0.3-3.2-0.8-3.5-2.5l-1.1-6c-0.3-1.7,0.8-3.2,2.5-3.5l0,0
		c1.7-0.3,3.2,0.8,3.5,2.5l1.1,6C305.1,114.6,304,116.2,302.4,116.5L302.4,116.5z"/>
	<path display="inline" fill="#58595B" d="M256.5,83.6c-1-1.3-0.8-3.3,0.6-4.3l4.9-3.8c1.3-1,3.3-0.8,4.3,0.6l0,0
		c1,1.3,0.8,3.3-0.6,4.3l-4.9,3.8C259.5,85.2,257.6,85,256.5,83.6L256.5,83.6z"/>
	<path display="inline" fill="#58595B" d="M279.8,68.4c1.7,0.3,2.7,1.9,2.4,3.6l-1.1,6c-0.3,1.7-1.9,2.7-3.6,2.4l0,0
		c-1.7-0.3-2.7-1.9-2.4-3.6l1.1-6C276.6,69.1,278.2,68.1,279.8,68.4L279.8,68.4z"/>
	<path display="inline" fill="#F68B1F" d="M287.4,72.5c-1.3-1.1-1.4-3-0.3-4.3l4-4.7c1.1-1.3,3-1.4,4.3-0.3l0,0
		c1.3,1.1,1.4,3,0.3,4.3l-4,4.7C290.7,73.4,288.7,73.6,287.4,72.5L287.4,72.5z"/>
	<path display="inline" fill="#58595B" d="M243.7,74.7c1-1.3,2.9-1.6,4.3-0.6l4.9,3.7c1.3,1,1.6,2.9,0.6,4.3l0,0
		c-1,1.3-2.9,1.6-4.3,0.6l-4.9-3.7C242.9,78,242.6,76.1,243.7,74.7L243.7,74.7z"/>
	<path display="inline" fill="#61BE79" d="M298.5,60.9c1.3-1.1,3.2-0.9,4.3,0.4l3.9,4.7c1.1,1.3,0.9,3.2-0.4,4.3l0,0
		c-1.3,1.1-3.2,0.9-4.3-0.4l-3.9-4.7C297,63.9,297.1,62,298.5,60.9L298.5,60.9z"/>
	<path display="inline" fill="#61BE79" d="M254.7,77.3c-1.5-0.8-2-2.6-1.2-4.1l2.9-5.4c0.8-1.5,2.6-2,4.1-1.2l0,0
		c1.5,0.8,2,2.6,1.2,4.1l-2.9,5.4C258.1,77.5,256.2,78.1,254.7,77.3L254.7,77.3z"/>
	<path display="inline" fill="#F68B1F" d="M263.2,72.2c-0.5-1.6,0.5-3.3,2.1-3.8l5.9-1.7c1.6-0.5,3.3,0.5,3.8,2.1l0,0
		c0.5,1.6-0.5,3.3-2.1,3.8l-5.9,1.7C265.4,74.8,263.7,73.9,263.2,72.2L263.2,72.2z"/>
	<path display="inline" fill="#F68B1F" d="M264.5,97.2c-1.5,0.7-3.3,0.1-4.1-1.4l-2.6-5.5c-0.7-1.5-0.1-3.3,1.4-4.1l0,0
		c1.5-0.7,3.3-0.1,4.1,1.4l2.6,5.5C266.7,94.7,266.1,96.5,264.5,97.2L264.5,97.2z"/>
	<path display="inline" fill="#F68B1F" d="M250.9,61.2c1.7,0.1,2.9,1.6,2.8,3.3l-0.5,6.1c-0.1,1.7-1.6,2.9-3.3,2.8l0,0
		c-1.7-0.1-2.9-1.6-2.8-3.3l0.5-6.1C247.8,62.3,249.2,61.1,250.9,61.2L250.9,61.2z"/>
	<path display="inline" fill="#61BE79" d="M243.8,62.2c1.6,0.5,2.6,2.1,2.1,3.8l-1.7,5.9c-0.5,1.6-2.1,2.6-3.8,2.1l0,0
		c-1.6-0.5-2.6-2.1-2.1-3.8l1.7-5.9C240.4,62.7,242.1,61.8,243.8,62.2L243.8,62.2z"/>
	<path display="inline" fill="#F68B1F" d="M281.6,19c1.2,1.2,1.1,3.2-0.1,4.3l-4.5,4.2c-1.2,1.2-3.2,1.1-4.3-0.1l0,0
		c-1.2-1.2-1.1-3.2,0.1-4.3l4.5-4.2C278.5,17.7,280.5,17.8,281.6,19L281.6,19z"/>
	<path display="inline" fill="#58595B" d="M310.1,45.1c-0.8,1.5-2.7,2-4.2,1.2l-5.4-3c-1.5-0.8-2-2.7-1.2-4.2l0,0
		c0.8-1.5,2.7-2,4.2-1.2l5.4,3C310.4,41.8,310.9,43.7,310.1,45.1L310.1,45.1z"/>
	<g display="inline">
		<path fill="#939598" d="M6.8,180.2c-0.7,1-1.8,1.6-3,1.6c-2,0-3.7-1.4-3.8-3.4h2.5c0.1,0.6,0.5,0.9,1.2,0.9c1,0,1.2-0.8,1.2-1.6
			v-9.7h2.5v9.5C7.4,178.5,7.4,179.3,6.8,180.2z"/>
		<path fill="#939598" d="M18,180c-0.9,1-2.2,1.8-3.6,1.8c-1.3,0-2.6-0.7-3.5-1.6c-1-1.1-1.1-2.4-1.1-3.8v-8.5h2.5v8.5
			c0,0.6,0,1.3,0.3,1.8c0.4,0.7,1,1.2,1.8,1.2c0.7,0,1.3-0.4,1.7-1c0.4-0.6,0.4-1.3,0.4-2v-8.5H19v8.5C19,177.7,18.9,179,18,180z"/>
		<path fill="#939598" d="M29.8,181.5l-5.7-9.9v9.9h-2.5v-13.5h2.8l5.7,9.9v-9.9h2.5v13.5H29.8z"/>
		<path fill="#939598" d="M35.2,181.5v-13.5h7.3v2.4h-4.8v3.1h4.6v2.4h-4.6v3.1h4.8v2.4H35.2z"/>
		<path fill="#939598" d="M53.9,181.8c-2.4,0-4.4-1.9-4.5-4.3h2.5c0.1,1.1,1.1,2,2.2,2c1.2,0,2.1-1,2.1-2.1c0-0.8-0.3-1.5-1-1.9
			c-0.6-0.4-1.2-0.4-1.9-0.4h-0.2v-2.3h0.2c1,0,1.9-0.2,1.9-1.4c0-0.8-0.5-1.2-1.3-1.2c-0.7,0-1.1,0.5-1.1,1.2h-2.4
			c0-1.9,1.6-3.5,3.5-3.5c2,0,3.7,1.6,3.7,3.6c0,1-0.3,1.9-1.2,2.4c1.5,0.5,2.2,2.1,2.2,3.6C58.6,179.9,56.5,181.8,53.9,181.8z"/>
		<path fill="#939598" d="M60.8,176.7v-2.2h5.1v2.2H60.8z"/>
		<path fill="#939598" d="M72,181.8c-2.3,0-4.5-2-4.6-4.3h2.4c0.1,1.1,1,2,2.1,2c1.4,0,2.3-1,2.3-2.4c0-1.2-1-2.3-2.3-2.3
			c-0.7,0-1.3,0.3-1.8,0.9l-2.2-0.6l1.3-7.1h6.1v2.3H71l-0.4,2.5c0.5-0.2,1.1-0.4,1.7-0.4c2.6,0,4.4,2.3,4.4,4.7
			C76.6,179.6,74.5,181.8,72,181.8z"/>
		<path fill="#939598" d="M80.5,183.4c-0.5,0.5-1.1,0.7-1.8,0.7v-1.2c0.6-0.1,1.1-0.4,1.1-1v-0.3h-1.1V179h2.4v2.3
			C81.1,182.2,81.1,182.8,80.5,183.4z"/>
		<path fill="#939598" d="M88.9,181.5v-2.3l4.7-4.3c0.8-0.8,1.6-1.6,1.6-2.8c0-1.1-0.8-2-1.9-2c-1.4,0-2.2,1.2-2.1,2.6h-2.4v-0.5
			c0-2.4,2-4.4,4.4-4.4c2.5,0,4.5,1.9,4.5,4.5c0,1.1-0.4,2.1-1.1,2.9l-1.7,1.8l-2.6,2.3h5.4v2.3H88.9z"/>
		<path fill="#939598" d="M103.6,181.8c-4.6-0.5-4.6-3.2-4.5-7.1c0-4.7,0.5-6.8,4.4-7.1c4,0.6,4.6,2.3,4.6,7.1
			C108.1,178.3,108.2,181.2,103.6,181.8z M103.5,170c-2.3,0-1.9,2.7-1.9,4.7c0,2-0.5,4.7,2,4.7c2.3,0,2.1-2.8,2-4.8
			C105.6,172.7,105.9,170.1,103.5,170z"/>
		<path fill="#939598" d="M113.2,181.5v-11.2h-1.7v-2.3h4.1v13.5H113.2z"/>
		<path fill="#939598" d="M123.9,181.8c-2.3,0-4.5-2-4.6-4.3h2.4c0.1,1.1,1,2,2.1,2c1.4,0,2.3-1,2.3-2.4c0-1.2-1-2.3-2.3-2.3
			c-0.7,0-1.3,0.3-1.8,0.9l-2.2-0.6l1.3-7.1h6.1v2.3h-4.3l-0.4,2.5c0.5-0.2,1.1-0.4,1.7-0.4c2.6,0,4.4,2.3,4.4,4.7
			C128.5,179.6,126.4,181.8,123.9,181.8z"/>
		<path fill="#CBCCCE" d="M136.2,181.5v-13.5h2.5v13.5H136.2z"/>
		<path fill="#939598" d="M150.3,181.8c-2.3,0-4.4-1.8-4.4-4.1h2.6c0,1.1,0.9,1.7,1.9,1.7c1,0,1.8-0.7,1.8-1.7
			c0-1.5-1.2-1.9-2.4-2.3c-0.9-0.3-1.7-0.5-2.3-1.2c-0.7-0.7-1.1-1.7-1.1-2.6c0-2.2,1.8-3.8,4-3.8c2.1,0,4,1.7,4,3.8h-2.6
			c0-0.8-0.7-1.4-1.5-1.4c-0.8,0-1.4,0.6-1.3,1.4c0,1,0.9,1.4,1.7,1.7c1,0.3,1.9,0.6,2.6,1.2c1,0.8,1.4,1.8,1.4,3.1
			C154.7,179.9,152.7,181.8,150.3,181.8z"/>
		<path fill="#939598" d="M165.9,181.5l-1.5-3.5h-4.8l-1.5,3.5h-2.8l5.6-13.5h2l5.7,13.5H165.9z M162,171.4l-1.4,4.1h2.9L162,171.4z
			"/>
		<path fill="#939598" d="M178.3,181.5l-5.7-9.9v9.9h-2.5v-13.5h2.8l5.7,9.9v-9.9h2.5v13.5H178.3z"/>
		<path fill="#939598" d="M197.8,179.9c-1.6,1.4-3.6,1.6-5.6,1.6h-2.9v-13.5h2.8c2,0,4.1,0.2,5.7,1.6c1.5,1.2,2.3,3.3,2.3,5.3
			C200.1,176.7,199.3,178.7,197.8,179.9z M195.8,171.2c-1.1-0.8-2.5-0.8-3.8-0.8h-0.2v8.6l0.3,0c1.4,0.2,2.7-0.1,3.9-0.9
			c1-0.8,1.6-2,1.6-3.3C197.6,173.4,197,172,195.8,171.2z"/>
		<path fill="#939598" d="M202.1,181.5v-13.5h2.5v13.5H202.1z"/>
		<path fill="#939598" d="M207.2,181.5v-13.5h7.3v2.4h-4.8v3.1h4.6v2.4h-4.6v3.1h4.8v2.4H207.2z"/>
		<path fill="#939598" d="M223.3,181.8c-3.9,0-7.2-3-7.2-7c0-4,3.3-7.1,7.2-7.1c2.8,0,5.5,1.6,6.6,4.2h-3c-0.8-1.1-2.2-1.8-3.6-1.8
			c-1.2,0-2.3,0.4-3.1,1.2c-0.9,0.8-1.6,2.2-1.6,3.4c0,1.1,0.5,2.3,1.3,3.1c0.9,1,2.2,1.5,3.5,1.5c1.6,0,3.2-1,4-2.4h-5.7v-2.4h8.8
			v0.3C230.5,178.8,227.2,181.8,223.3,181.8z"/>
		<path fill="#939598" d="M238.6,181.8c-3.8,0-7-3.1-7-7c0-4,3.1-7.1,7-7.1c3.9,0,7.1,3.1,7.1,7.1
			C245.6,178.7,242.4,181.8,238.6,181.8z M238.6,170.1c-2.5,0-4.5,2-4.5,4.6c0,2.5,2.1,4.6,4.5,4.6c2.5,0,4.6-2.1,4.6-4.6
			C243.1,172.2,241.1,170.1,238.6,170.1z"/>
	</g>
</g>
<g id="Layer_2">
	<g>
		<g>
			<path fill="#F68B1F" d="M295.1,108.3v-3.6l7.3-6.8c1.3-1.2,2.6-2.5,2.6-4.4c0-1.8-1.3-3.1-3-3.1c-2.3,0-3.4,1.9-3.3,4h-3.8v-0.8
				c0-3.8,3.1-6.9,6.8-6.9c4,0,7.1,3,7.1,7c0,1.7-0.7,3.2-1.7,4.6l-2.7,2.8l-4,3.6h8.4v3.6H295.1z"/>
			<path fill="#F68B1F" d="M318.4,108.9c-7.2-0.7-7.1-5-7.1-11.1c0.1-7.4,0.7-10.6,6.9-11.1c6.3,0.9,7.1,3.6,7.2,11.1
				C325.5,103.4,325.6,107.9,318.4,108.9z M318.3,90.5c-3.7,0-3,4.3-2.9,7.3c0,3.1-0.7,7.3,3.1,7.4c3.6,0.1,3.3-4.3,3.2-7.5
				C321.6,94.6,322.1,90.5,318.3,90.5z"/>
			<path fill="#F68B1F" d="M330.5,108.3V90.8h-2.7v-3.6h6.5v21.1H330.5z"/>
			<path fill="#F68B1F" d="M346.2,108.8c-4.3,0-7.3-3.4-7.3-7.5c0-1.8,0.6-3.5,1.5-4.9l6-9.2h4.5l-4.7,7.2l1.1-0.1
				c1.7,0,3.2,0.8,4.4,2c1.3,1.4,1.9,3,1.9,5C353.6,105.4,350.4,108.8,346.2,108.8z M346.2,97.8c-1.9,0-3.5,1.5-3.5,3.6
				c0,2,1.4,3.7,3.5,3.7c2,0,3.5-1.6,3.5-3.6C349.7,99.5,348.2,97.8,346.2,97.8z"/>
		</g>
		<g>
			<path fill="#58595B" d="M107.3,140.9c-3.8,3-9.1,2.8-13.6,2.8H92V161h-8.5v-45.9h10.8c4.4,0,8.6-0.2,12.4,2.4
				c3.8,2.5,6.1,6.9,6.1,11.5C112.8,133.7,110.9,138,107.3,140.9z M99.8,123.8c-1.9-0.5-4.5-0.4-6.3-0.4H92v12h1.6
				c2.1,0,4.5,0.1,6.6-0.5c2.5-0.8,4.2-3,4.2-5.7C104.2,126.4,102.4,124.4,99.8,123.8z"/>
			<path fill="#58595B" d="M137.6,161l-11.9-17.6h-0.1V161h-8.5v-45.9h13.3c4.3,0.1,8.4,0.3,11.9,3.2c3.3,2.7,5.4,7,5.4,11.3
				c0,3.4-1.6,7.6-3.8,10c-2.2,2.4-5,3.7-8.1,4.4l12.5,16.9H137.6z M136.6,124.9c-2-1.5-4-1.6-6.3-1.6h-4.7V137h4.7
				c2.2,0,5.1-0.3,6.8-1.9c1.4-1.3,2.1-3,2.1-5C139.1,128.1,138.2,126.1,136.6,124.9z"/>
			<path fill="#58595B" d="M173.5,162.2c-13,0-23.9-10.5-23.9-23.8c0-13.4,10.7-24.1,23.9-24.1c13.3,0,23.9,10.7,23.9,24.1
				C197.4,151.6,186.6,162.2,173.5,162.2z M173.5,122.5c-8.6,0-15.4,6.9-15.4,15.6c0,8.5,7,15.8,15.4,15.8c8.4,0,15.4-7.3,15.4-15.8
				C188.9,129.5,182.1,122.5,173.5,122.5z"/>
			<path fill="#58595B" d="M227.1,158c-3.7,2.7-8.3,2.9-12.7,3h-11.5v-45.9h8.6c4.2,0,8.1-0.2,11.9,1.7c3.8,1.9,6.5,6,6.5,10.3
				c0,3.7-1.7,7.2-5.1,8.8c5.1,1.6,7.9,5.9,7.9,11.1C232.8,151.5,230.7,155.3,227.1,158z M218.6,123.8c-1.6-0.7-3.8-0.4-5.6-0.4
				h-1.6v9.4h1.6c1.8,0,4.2,0.1,5.8-0.7c1.6-0.7,2.6-2.5,2.6-4.3C221.4,126,220.2,124.5,218.6,123.8z M221.2,142c-1.9-1-4-0.9-6-0.9
				h-3.7v11.7h3.5c2.5,0,4.8-0.1,7-1.6c1.6-1.1,2.2-2.5,2.2-4.5C224.2,144.5,223.2,143.1,221.2,142z"/>
			<path fill="#58595B" d="M237.8,161v-45.9h8.5V161H237.8z"/>
			<path fill="#58595B" d="M275.4,162.2c-13,0-23.9-10.5-23.9-23.8c0-13.4,10.7-24.1,23.9-24.1c13.3,0,23.9,10.7,23.9,24.1
				C299.4,151.6,288.5,162.2,275.4,162.2z M275.4,122.5c-8.6,0-15.4,6.9-15.4,15.6c0,8.5,7,15.8,15.4,15.8c8.4,0,15.4-7.3,15.4-15.8
				C290.9,129.5,284.1,122.5,275.4,122.5z"/>
			<path fill="#58595B" d="M318.1,123.4V161h-8.5v-37.7h-8.4v-8.2h25.5v8.2H318.1z"/>
			<path fill="#58595B" d="M356.7,161l-5-11.8h-16.3l-5.1,11.8H321l19.1-45.9h6.6l19.4,45.9H356.7z M343.4,127l-4.9,14h9.8
				L343.4,127z"/>
		</g>
		<g>
			<path opacity="0.7" fill="#FFD337" d="M55.5,30c10.1,0,18.2,8.2,18.2,18.2v36.6c0,10.1-8.2,18.2-18.2,18.2h-0.1
				c-10.1,0-18.2-8.2-18.2-18.2V48.2c0-10.1,8.2-18.2,18.2-18.2H55.5z"/>
			<path opacity="0.7" fill="#61BE79" d="M0.6,84.7c0-10.1,8.2-18.2,18.2-18.2h36.6c10.1,0,18.2,8.2,18.2,18.2v0.1
				c0,10.1-8.2,18.2-18.2,18.2H18.9c-10.1,0-18.2-8.2-18.2-18.2V84.7z"/>
			<circle opacity="0.5" fill="#FFFFFF" cx="55.4" cy="84.8" r="18.4"/>
		</g>
		<g>
			<path opacity="0.7" fill="#F68B1F" d="M98.4,30.7c10.1,0,18.2,8.2,18.2,18.2v36.6c0,10.1-8.2,18.2-18.2,18.2h-0.1
				c-10.1,0-18.2-8.2-18.2-18.2V48.9c0-10.1,8.2-18.2,18.2-18.2H98.4z"/>
			<path opacity="0.7" fill="#61BE79" d="M153.1,85.5c0,10.1-8.2,18.2-18.2,18.2H98.3c-10.1,0-18.2-8.2-18.2-18.2v-0.1
				c0-10.1,8.2-18.2,18.2-18.2h36.6c10.1,0,18.2,8.2,18.2,18.2V85.5z"/>
			<circle opacity="0.2" fill="#FFFFFF" cx="98.3" cy="85.5" r="18.4"/>
		</g>
		<g>
			<path opacity="0.7" fill="#FFD337" d="M54.7,182.5c-10.1,0-18.2-8.2-18.2-18.2v-36.6c0-10.1,8.2-18.2,18.2-18.2h0.1
				c10.1,0,18.2,8.2,18.2,18.2v36.6c0,10.1-8.2,18.2-18.2,18.2H54.7z"/>
			<path opacity="0.7" fill="#F68B1F" d="M0,127.7c0-10.1,8.2-18.2,18.2-18.2h36.6c10.1,0,18.2,8.2,18.2,18.2v0.1
				c0,10.1-8.2,18.2-18.2,18.2H18.2C8.2,146,0,137.9,0,127.8V127.7z"/>
			<circle opacity="0.4" fill="#FFFFFF" cx="54.8" cy="127.7" r="18.4"/>
		</g>
		<g>
			<path fill="#F68B1F" d="M85.4,168.4v6.2h6.7v1.5h-6.7v7.8h-1.7v-17h8.6v1.5H85.4z"/>
			<path fill="#F68B1F" d="M95.6,183.9v-17h9.3v1.5h-7.6v6.2h7.3v1.5h-7.3v6.3h7.6v1.5H95.6z"/>
			<path fill="#F68B1F" d="M117,182.9c-1.5,0.9-3,0.9-4.7,0.9h-4v-17h4c1.4,0,2.7,0.1,3.9,0.9c1.2,0.8,2,2.2,2,3.7
				c0,1.5-0.7,2.6-1.9,3.4c1.8,0.7,2.8,2.3,2.8,4.3C119.1,180.6,118.4,182.1,117,182.9z M115.1,168.9c-0.9-0.5-2.1-0.6-3.1-0.5h-2
				v5.8h1.8c1.1,0,2.3,0,3.2-0.5c0.8-0.4,1.4-1.5,1.4-2.4C116.5,170.3,115.9,169.3,115.1,168.9z M115.3,176
				c-1.1-0.4-2.3-0.3-3.4-0.3H110v6.7h2.1c1.2,0,2.6,0,3.6-0.5c1-0.5,1.7-1.7,1.7-2.7C117.4,177.6,116.6,176.5,115.3,176z"/>
			<path fill="#F68B1F" d="M128.4,177.5l4.8,6.4h-2.1l-5.8-7.7h0.5c1.2,0,2.6,0,3.7-0.5c1.4-0.6,2.2-1.9,2.2-3.5
				c0-1.2-0.6-2.4-1.6-3c-1.1-0.8-2.5-0.8-3.8-0.8h-2.7v15.5h-1.7v-17h4.1c1.6,0,3.4,0,4.8,0.8c1.8,1,2.7,2.7,2.7,4.7
				C133.5,175.2,131.2,177.4,128.4,177.5z"/>
			<path fill="#F68B1F" d="M146.6,182c-1.1,1.4-2.8,2.2-4.5,2.2c-1.7,0-3.4-0.7-4.4-2c-1.2-1.5-1.4-3.2-1.4-5v-10.4h1.7v10.4
				c0,1.2,0.1,2.5,0.8,3.6c0.7,1.1,2,1.8,3.3,1.8c1.2,0,2.4-0.6,3.1-1.5c0.9-1.1,1-2.5,1-3.8v-10.4h1.7v10.4
				C147.9,178.9,147.7,180.6,146.6,182z"/>
			<path fill="#F68B1F" d="M165,183.9l-2.5-5.7h-7.9l-2.5,5.7h-1.8l7.3-17h1.9l5.1,11.8l2.3,5.3H165z M158.5,168.8l-3.3,7.8h6.6
				L158.5,168.8z"/>
			<path fill="#F68B1F" d="M175.7,177.5l4.8,6.4h-2.1l-5.8-7.7h0.5c1.2,0,2.6,0,3.7-0.5c1.4-0.6,2.2-1.9,2.2-3.5
				c0-1.2-0.6-2.4-1.6-3c-1.1-0.8-2.5-0.8-3.8-0.8h-2.7v15.5h-1.7v-17h4.1c1.6,0,3.4,0,4.8,0.8c1.8,1,2.7,2.7,2.7,4.7
				C180.7,175.2,178.4,177.4,175.7,177.5z"/>
			<path fill="#F68B1F" d="M188.9,178.2v5.7h-1.7v-5.7l-5.9-11.4h1.9l4.9,9.6l4.9-9.6h1.9L188.9,178.2z"/>
			<path fill="#FFD337" d="M206.9,178.9c-1.3-1.2-1.3-3.2-0.2-4.4c1.2-1.3,3.2-1.3,4.4-0.2c1.3,1.2,1.3,3.2,0.2,4.4
				C210.2,179.9,208.2,180,206.9,178.9z"/>
			<path fill="#F68B1F" d="M238,183.9l-2.5-5.7h-7.9l-2.5,5.7h-1.8l7.3-17h1.9l5.1,11.8l2.3,5.3H238z M231.6,168.8l-3.3,7.8h6.6
				L231.6,168.8z"/>
			<path fill="#F68B1F" d="M258.1,183.9v-15.2l-6.4,15.2h-1.5l-6.4-15.2v15.2h-1.7v-17h2.6l6.2,14.5l6.2-14.5h2.6v17H258.1z"/>
			<path fill="#F68B1F" d="M267.7,184.2c-2.9,0-5.3-2.1-5.3-5.1h1.8c0,1.9,1.5,3.4,3.4,3.4c1.9,0,3.5-1.4,3.5-3.4
				c0-0.9-0.5-1.8-1.2-2.4c-0.8-0.6-1.7-0.9-2.6-1.1c-1.1-0.3-2.1-0.6-3-1.3c-0.9-0.8-1.4-2-1.4-3.2c0-2.7,2.2-4.6,4.8-4.6
				c2.6,0,4.7,2,4.7,4.6h-1.8c-0.1-1.7-1.4-3-3.1-3c-1.7,0-2.9,1.4-2.9,3c0,2.1,1.7,2.6,3.4,3c1.2,0.3,2.3,0.6,3.3,1.5
				c1,0.9,1.6,2.2,1.6,3.6C272.9,182,270.5,184.2,267.7,184.2z"/>
			<path fill="#F68B1F" d="M279.6,168.4v15.5h-1.7v-15.5h-3.9v-1.5h9.5v1.5H279.6z"/>
			<path fill="#F68B1F" d="M285.7,183.9v-17h9.3v1.5h-7.6v6.2h7.3v1.5h-7.3v6.3h7.6v1.5H285.7z"/>
			<path fill="#F68B1F" d="M304.9,177.5l4.8,6.4h-2.1l-5.8-7.7h0.5c1.2,0,2.6,0,3.7-0.5c1.4-0.6,2.2-1.9,2.2-3.5
				c0-1.2-0.6-2.4-1.6-3c-1.1-0.8-2.5-0.8-3.8-0.8h-2.7v15.5h-1.7v-17h4.1c1.6,0,3.4,0,4.8,0.8c1.8,1,2.7,2.7,2.7,4.7
				C309.9,175.2,307.7,177.4,304.9,177.5z"/>
			<path fill="#F68B1F" d="M324.3,181.6c-2,1.8-4.3,2.2-6.9,2.2h-4.7v-17h4.6c2.4,0,4.7,0.4,6.7,2c1.9,1.6,3.1,4.1,3.1,6.5
				C327.1,177.8,326.1,180,324.3,181.6z M322.8,169.9c-1.9-1.5-3.9-1.6-6.2-1.5h-2.2v14h2.2c2.3,0,4.3-0.1,6.2-1.6
				c1.7-1.3,2.6-3.3,2.6-5.4C325.4,173.1,324.5,171.3,322.8,169.9z"/>
			<path fill="#F68B1F" d="M343.5,183.9l-2.5-5.7h-7.9l-2.5,5.7h-1.8l7.3-17h1.9l5.1,11.8l2.3,5.3H343.5z M337,168.8l-3.3,7.8h6.6
				L337,168.8z"/>
			<path fill="#F68B1F" d="M363.6,183.9v-15.2l-6.4,15.2h-1.5l-6.4-15.2v15.2h-1.7v-17h2.6l6.2,14.5l6.2-14.5h2.6v17H363.6z"/>
		</g>
	</g>
</g>
</svg>
